0.000000, 0.000000
1.000000, 0.000000
2.000000, -1221.147895
3.000000, -1221.147895
4.000000, -1221.147895
5.000000, 3.223401
6.000000, 3.223401
7.000000, 4.297961
8.000000, 4.297961
9.000000, 4.297961
10.000000, 5.372427
11.000000, 5.372427
12.000000, 5.372427
13.000001, 31.160004
14.000000, 31.160004
15.000000, 91.330900
16.000000, 91.330900
17.000000, 91.330900
18.000001, 162.246537
19.000000, 162.246537
20.000000, 162.246537
21.000001, 61.245451
22.000000, 61.245451
23.000000, 113.895071
24.000001, 113.895071
25.000000, 113.895071
26.000001, 134.310043
27.000000, 134.310043
28.000000, 134.310043
29.000001, 111.746037
30.000000, 111.746037
31.000001, 58.021955
32.000000, 58.021955
33.000000, 58.021955
34.000001, 146.129394
35.000000, 146.129394
36.000001, 146.129394
37.000000, 163.321104
38.000000, 163.321104
39.000001, 134.310150
40.000000, 134.310150
40.999999, 134.310150
42.000003, 132.161331
43.000002, 132.161331
44.000001, 132.161331
45.000000, 137.533569
45.999999, 137.533569
47.000003, 155.799665
48.000002, 155.799665
49.000001, 155.799665
50.000000, -424.957275
50.999999, -424.957275
52.000003, -424.957275
53.000002, 679.609346
54.000001, 679.609346
55.000000, 84.884052
55.999999, 84.884052
57.000003, 84.884052
58.000002, 51.575065
59.000001, 51.575065
60.000000, 51.575065
60.999999, 46.202731
62.000003, 46.202731
63.000002, -29.010978
64.000001, -29.010978
65.000000, -29.010978
65.999999, -68.766809
67.000003, -68.766809
68.000002, -68.766809
69.000001, -764.493370
70.000000, -764.493370
70.999999, 455.042887
72.000003, 455.042887
73.000002, 455.042887
74.000001, -455.042887
75.000000, -455.042887
75.999999, -455.042887
77.000003, 2103.296995
78.000002, 2103.296995
79.000001, -1958.778572
80.000000, -1958.778572
81.000004, -1958.778572
81.999998, 9.670260
83.000002, 9.670260
84.000006, 9.670260
85.000000, -10.744855
86.000004, -10.744855
86.999998, -35.457802
88.000002, -35.457802
89.000006, -35.457802
90.000000, -10.744861
91.000004, -10.744861
91.999998, -10.744861
93.000002, 37.606812
94.000006, 37.606812
95.000000, 19.340708
96.000004, 19.340708
96.999998, 19.340708
98.000002, 8.595840
99.000006, 8.595840
100.000000, 8.595840
100.999999, 8.595851
101.999998, 8.595851
102.999997, -1.074409
103.999996, -1.074409
104.999995, -1.074409
105.999994, -11.819264
106.999993, -11.819264
107.999992, -11.819264
109.000004, -1.074607
110.000002, -1.074607
111.000001, -3.223412
112.000000, -3.223412
113.000000, -3.223412
113.999999, -2.149015
114.999998, -2.149015
115.999997, -2.149015
116.999996, 2.149015
117.999995, 2.149015
118.999994, 10.744855
